<?xml version="1.0" encoding="UTF-8" standalone="no"?>
<!-- Creator: fig2dev Version 3.2.8 -->
<!-- CreationDate: 2022-03-21 13:48:58 -->
<!-- Magnification: 1.05 -->
<svg	xmlns="http://www.w3.org/2000/svg"
	xmlns:xlink="http://www.w3.org/1999/xlink"
	width="212pt" height="191pt"
	viewBox="-285 -33 3360 3018">
<g fill="none">
<!-- Line -->
<polyline points=" 0,0 2700,0 2700,2025"
	stroke="#000000" stroke-width="30px" stroke-dasharray="40 40"/>
<!-- Line -->
<defs>
<clipPath id="cp0">
	<path clip-rule="evenodd" d="M -285,-33 H 3075 V 2985 H -285 z
		M 2865,1889 2805,1889 2825,2036 2846,2036z
		M 2805,136 2865,136 2846,-10 2825,-10z"/>
</clipPath>
</defs>
<polyline points=" 2835,0 2835,2025" clip-path="url(#cp0)"
	stroke="#000000" stroke-width="15px"/>
<!-- Forward arrow to point 2835,2025 -->
<polygon points=" 2805,1889 2835,2009 2865,1889 2805,1889"
	stroke="#000000" stroke-width="8px" stroke-miterlimit="8" fill="#000000"/>
<!-- Backward arrow to point 2835,0 -->
<polygon points=" 2865,136 2835,16 2805,136 2865,136"
	stroke="#000000" stroke-width="8px" stroke-miterlimit="8" fill="#000000"/>
<!-- Line -->
<polyline points=" 0,0 0,2700 2700,2700 2700,2025 0,0"
	stroke="#000000" stroke-width="30px"/>
<!-- Line -->
<rect x="0" y="1350" width="1800" height="1350" fill="#87cfff"
	stroke="#000000" stroke-width="15px"/>
<!-- Text -->
<text xml:space="preserve" x="1080" y="2970" fill="#000000" font-family="Helvetica" font-style="normal" font-weight="normal" font-size="144" text-anchor="start">60 cm</text>
<!-- Text -->
<g transform="translate(-135,1620) rotate(-90)" >
<text xml:space="preserve" x="0" y="0" fill="#000000" font-family="Helvetica" font-style="normal" font-weight="normal" font-size="144" text-anchor="start">60 cm</text>
</g><!-- Text -->
<g transform="translate(2925,765) rotate(-270)" >
<text xml:space="preserve" x="0" y="0" fill="#000000" font-family="Helvetica" font-style="normal" font-weight="normal" font-size="144" text-anchor="start">45 cm</text>
</g></g>
</svg>
