<?xml version="1.0"?>
<svg  width="125" height="125" viewbox="0 0 125 125" version="1.1"
  xmlns="http://www.w3.org/2000/svg">
  <g fill="none" stroke="black" stroke-width="3">
 <circle cx="60" cy="60" r="50" />
 <path d="M 60 60 A 25 25 1 0 1 60 10" />
 <path d="M 60 60 A 25 25 1 0 1 60 110" />
 </g>
</svg>
